…
``` r
contrast_models(roc_auc_model)
```

    ## # Posterior samples of performance differences
    ## # A tibble: 12,000 x 4
    ##    difference model_1  model_2      contrast                 
    ##         <dbl> <chr>    <chr>        <chr>                    
    ##  1    0.00744 logistic randomForest logistic vs. randomForest
    ##  2    0.00608 logistic randomForest logistic vs. randomForest
    ##  3    0.00552 logistic randomForest logistic vs. randomForest
    ##  4    0.00701 logistic randomForest logistic vs. randomForest
    ##  5    0.00753 logistic randomForest logistic vs. randomForest
    ##  6    0.00626 logistic randomForest logistic vs. randomForest
    ##  7    0.00574 logistic randomForest logistic vs. randomForest
    ##  8    0.00529 logistic randomForest logistic vs. randomForest
    ##  9    0.00707 logistic randomForest logistic vs. randomForest
    ## 10    0.00738 logistic randomForest logistic vs. randomForest
    ## # … with 11,990 more rows
…
